UL1_DOT_legs_attack.png
format: RGBA8888
filter: Linear,Linear
repeat: none
attack_
  rotate: false
  xy: 2, 2
  size: 47, 48
  orig: 47, 48
  offset: 0, 0
  index: 0
attack_
  rotate: false
  xy: 2, 2
  size: 47, 48
  orig: 47, 48
  offset: 0, 0
  index: 1
attack_
  rotate: false
  xy: 2, 2
  size: 47, 48
  orig: 47, 48
  offset: 0, 0
  index: 2
attack_
  rotate: false
  xy: 51, 2
  size: 47, 48
  orig: 47, 48
  offset: 0, 0
  index: 3
attack_
  rotate: false
  xy: 100, 2
  size: 47, 48
  orig: 47, 48
  offset: 0, 0
  index: 4
attack_
  rotate: false
  xy: 149, 2
  size: 47, 48
  orig: 47, 48
  offset: 0, 0
  index: 5
attack_
  rotate: false
  xy: 198, 2
  size: 47, 48
  orig: 47, 48
  offset: 0, 0
  index: 6
attack_
  rotate: false
  xy: 247, 2
  size: 47, 48
  orig: 47, 48
  offset: 0, 0
  index: 7
attack_
  rotate: false
  xy: 296, 2
  size: 47, 48
  orig: 47, 48
  offset: 0, 0
  index: 8
attack_
  rotate: false
  xy: 345, 2
  size: 47, 48
  orig: 47, 48
  offset: 0, 0
  index: 9
attack_
  rotate: false
  xy: 394, 2
  size: 47, 48
  orig: 47, 48
  offset: 0, 0
  index: 10
attack_
  rotate: false
  xy: 443, 2
  size: 47, 48
  orig: 47, 48
  offset: 0, 0
  index: 11
attack_
  rotate: false
  xy: 492, 2
  size: 47, 48
  orig: 47, 48
  offset: 0, 0
  index: 12
attack_
  rotate: false
  xy: 541, 2
  size: 47, 48
  orig: 47, 48
  offset: 0, 0
  index: 13
attack_
  rotate: false
  xy: 590, 2
  size: 47, 48
  orig: 47, 48
  offset: 0, 0
  index: 14
attack_
  rotate: false
  xy: 639, 2
  size: 47, 48
  orig: 47, 48
  offset: 0, 0
  index: 15
