EUL2_low2_walk_DOTed.png
format: RGBA8888
filter: Linear,Linear
repeat: none
walk_
  rotate: false
  xy: 2, 2
  size: 100, 95
  orig: 100, 95
  offset: 0, 0
  index: 0
walk_
  rotate: false
  xy: 104, 2
  size: 100, 95
  orig: 100, 95
  offset: 0, 0
  index: 1
walk_
  rotate: false
  xy: 206, 2
  size: 100, 95
  orig: 100, 95
  offset: 0, 0
  index: 2
walk_
  rotate: false
  xy: 308, 2
  size: 100, 95
  orig: 100, 95
  offset: 0, 0
  index: 3
walk_
  rotate: false
  xy: 410, 2
  size: 100, 95
  orig: 100, 95
  offset: 0, 0
  index: 4
walk_
  rotate: false
  xy: 512, 2
  size: 100, 95
  orig: 100, 95
  offset: 0, 0
  index: 5
walk_
  rotate: false
  xy: 614, 2
  size: 100, 95
  orig: 100, 95
  offset: 0, 0
  index: 6
walk_
  rotate: false
  xy: 716, 2
  size: 100, 95
  orig: 100, 95
  offset: 0, 0
  index: 7
walk_
  rotate: false
  xy: 818, 2
  size: 100, 95
  orig: 100, 95
  offset: 0, 0
  index: 8
walk_
  rotate: false
  xy: 920, 2
  size: 100, 95
  orig: 100, 95
  offset: 0, 0
  index: 9
walk_
  rotate: false
  xy: 1022, 2
  size: 100, 95
  orig: 100, 95
  offset: 0, 0
  index: 10
walk_
  rotate: false
  xy: 1124, 2
  size: 100, 95
  orig: 100, 95
  offset: 0, 0
  index: 11
walk_
  rotate: false
  xy: 1226, 2
  size: 100, 95
  orig: 100, 95
  offset: 0, 0
  index: 12
walk_
  rotate: false
  xy: 1328, 2
  size: 100, 95
  orig: 100, 95
  offset: 0, 0
  index: 13
walk_
  rotate: false
  xy: 1430, 2
  size: 100, 95
  orig: 100, 95
  offset: 0, 0
  index: 14
walk_
  rotate: false
  xy: 1532, 2
  size: 100, 95
  orig: 100, 95
  offset: 0, 0
  index: 15
