EUL2_low_attack.png
format: RGBA8888
filter: Linear,Linear
repeat: none
attack_
  rotate: false
  xy: 2, 2
  size: 200, 81
  orig: 200, 81
  offset: 0, 0
  index: 0
attack_
  rotate: false
  xy: 204, 2
  size: 200, 81
  orig: 200, 81
  offset: 0, 0
  index: 1
attack_
  rotate: false
  xy: 406, 2
  size: 200, 81
  orig: 200, 81
  offset: 0, 0
  index: 2
attack_
  rotate: false
  xy: 608, 2
  size: 200, 81
  orig: 200, 81
  offset: 0, 0
  index: 3
attack_
  rotate: false
  xy: 810, 2
  size: 200, 81
  orig: 200, 81
  offset: 0, 0
  index: 4
attack_
  rotate: false
  xy: 1012, 2
  size: 200, 81
  orig: 200, 81
  offset: 0, 0
  index: 5
attack_
  rotate: false
  xy: 1214, 2
  size: 200, 81
  orig: 200, 81
  offset: 0, 0
  index: 6
attack_
  rotate: false
  xy: 1416, 2
  size: 200, 81
  orig: 200, 81
  offset: 0, 0
  index: 7
attack_
  rotate: false
  xy: 2, 85
  size: 200, 81
  orig: 200, 81
  offset: 0, 0
  index: 8
attack_
  rotate: false
  xy: 204, 85
  size: 200, 81
  orig: 200, 81
  offset: 0, 0
  index: 9
attack_
  rotate: false
  xy: 406, 85
  size: 200, 81
  orig: 200, 81
  offset: 0, 0
  index: 10
attack_
  rotate: false
  xy: 608, 85
  size: 200, 81
  orig: 200, 81
  offset: 0, 0
  index: 11
attack_
  rotate: false
  xy: 810, 85
  size: 200, 81
  orig: 200, 81
  offset: 0, 0
  index: 12
attack_
  rotate: false
  xy: 1012, 85
  size: 200, 81
  orig: 200, 81
  offset: 0, 0
  index: 13
attack_
  rotate: false
  xy: 1214, 85
  size: 200, 81
  orig: 200, 81
  offset: 0, 0
  index: 14
attack_
  rotate: false
  xy: 1416, 85
  size: 200, 81
  orig: 200, 81
  offset: 0, 0
  index: 15
