EUL2_low_stronger_walk.png
format: RGBA8888
filter: Linear,Linear
repeat: none
walk_
  rotate: false
  xy: 2, 2
  size: 174, 81
  orig: 174, 81
  offset: 0, 0
  index: 0
walk_
  rotate: false
  xy: 178, 2
  size: 174, 81
  orig: 174, 81
  offset: 0, 0
  index: 1
walk_
  rotate: false
  xy: 354, 2
  size: 174, 81
  orig: 174, 81
  offset: 0, 0
  index: 2
walk_
  rotate: false
  xy: 530, 2
  size: 174, 81
  orig: 174, 81
  offset: 0, 0
  index: 3
walk_
  rotate: false
  xy: 706, 2
  size: 174, 81
  orig: 174, 81
  offset: 0, 0
  index: 4
walk_
  rotate: false
  xy: 882, 2
  size: 174, 81
  orig: 174, 81
  offset: 0, 0
  index: 5
walk_
  rotate: false
  xy: 1058, 2
  size: 174, 81
  orig: 174, 81
  offset: 0, 0
  index: 6
walk_
  rotate: false
  xy: 1234, 2
  size: 174, 81
  orig: 174, 81
  offset: 0, 0
  index: 7
walk_
  rotate: false
  xy: 2, 85
  size: 174, 81
  orig: 174, 81
  offset: 0, 0
  index: 8
walk_
  rotate: false
  xy: 178, 85
  size: 174, 81
  orig: 174, 81
  offset: 0, 0
  index: 9
walk_
  rotate: false
  xy: 354, 85
  size: 174, 81
  orig: 174, 81
  offset: 0, 0
  index: 10
walk_
  rotate: false
  xy: 530, 85
  size: 174, 81
  orig: 174, 81
  offset: 0, 0
  index: 11
walk_
  rotate: false
  xy: 706, 85
  size: 174, 81
  orig: 174, 81
  offset: 0, 0
  index: 12
walk_
  rotate: false
  xy: 882, 85
  size: 174, 81
  orig: 174, 81
  offset: 0, 0
  index: 13
walk_
  rotate: false
  xy: 1058, 85
  size: 174, 81
  orig: 174, 81
  offset: 0, 0
  index: 14
walk_
  rotate: false
  xy: 1234, 85
  size: 174, 81
  orig: 174, 81
  offset: 0, 0
  index: 15
