info face="PixelLCD" size=13 bold=0 italic=0 charset="" unicode=1 stretchH=100 smooth=1 aa=2 padding=0,0,0,0 spacing=0,0
common lineHeight=13 base=10 scaleW=512 scaleH=512 pages=1 packed=0 alphaChnl=0 redChnl=0 greenChnl=0 blueChnl=0
page id=0 file="Fonts.png"
chars count=96
char id=10   x=21   y=125  width=0    height=0    xoffset=0    yoffset=10   xadvance=0    page=0    chnl=0
char id=32   x=0    y=0    width=0    height=0    xoffset=0    yoffset=0    xadvance=9    page=0    chnl=0
char id=33   x=100  y=121  width=2    height=11   xoffset=3    yoffset=-1   xadvance=9    page=0    chnl=0
char id=34   x=11   y=508  width=6    height=3    xoffset=1    yoffset=-1   xadvance=9    page=0    chnl=0
char id=35   x=476  y=133  width=9    height=10   xoffset=0    yoffset=0    xadvance=9    page=0    chnl=0
char id=36   x=435  y=133  width=9    height=11   xoffset=0    yoffset=-1   xadvance=9    page=0    chnl=0
char id=37   x=446  y=133  width=9    height=10   xoffset=0    yoffset=0    xadvance=10   page=0    chnl=0
char id=38   x=487  y=133  width=9    height=11   xoffset=0    yoffset=-1   xadvance=9    page=0    chnl=0
char id=39   x=19   y=508  width=2    height=3    xoffset=3    yoffset=-1   xadvance=9    page=0    chnl=0
char id=40   x=126  y=268  width=5    height=11   xoffset=0    yoffset=-1   xadvance=9    page=0    chnl=0
char id=41   x=404  y=133  width=5    height=11   xoffset=4    yoffset=-1   xadvance=9    page=0    chnl=0
char id=42   x=143  y=174  width=8    height=8    xoffset=1    yoffset=1    xadvance=9    page=0    chnl=0
char id=43   x=457  y=133  width=8    height=7    xoffset=1    yoffset=1    xadvance=9    page=0    chnl=0
char id=44   x=392  y=56   width=3    height=3    xoffset=3    yoffset=8    xadvance=9    page=0    chnl=0
char id=45   x=23   y=509  width=7    height=2    xoffset=1    yoffset=3    xadvance=9    page=0    chnl=0
char id=46   x=19   y=152  width=2    height=2    xoffset=3    yoffset=8    xadvance=9    page=0    chnl=0
char id=47   x=389  y=103  width=8    height=8    xoffset=1    yoffset=1    xadvance=10   page=0    chnl=0
char id=48   x=384  y=133  width=8    height=11   xoffset=1    yoffset=-1   xadvance=9    page=0    chnl=0
char id=49   x=76   y=345  width=2    height=11   xoffset=6    yoffset=-1   xadvance=9    page=0    chnl=0
char id=50   x=304  y=133  width=8    height=11   xoffset=1    yoffset=-1   xadvance=9    page=0    chnl=0
char id=51   x=314  y=133  width=8    height=11   xoffset=0    yoffset=-1   xadvance=9    page=0    chnl=0
char id=52   x=324  y=133  width=8    height=11   xoffset=1    yoffset=-1   xadvance=9    page=0    chnl=0
char id=53   x=334  y=133  width=8    height=11   xoffset=1    yoffset=-1   xadvance=9    page=0    chnl=0
char id=54   x=344  y=133  width=8    height=11   xoffset=1    yoffset=-1   xadvance=9    page=0    chnl=0
char id=55   x=354  y=133  width=8    height=11   xoffset=1    yoffset=-1   xadvance=9    page=0    chnl=0
char id=56   x=364  y=133  width=8    height=11   xoffset=1    yoffset=-1   xadvance=9    page=0    chnl=0
char id=57   x=374  y=133  width=8    height=11   xoffset=1    yoffset=-1   xadvance=9    page=0    chnl=0
char id=58   x=54   y=192  width=2    height=5    xoffset=3    yoffset=3    xadvance=9    page=0    chnl=0
char id=59   x=508  y=51   width=3    height=9    xoffset=3    yoffset=2    xadvance=9    page=0    chnl=0
char id=60   x=98   y=257  width=4    height=7    xoffset=3    yoffset=1    xadvance=9    page=0    chnl=0
char id=61   x=467  y=133  width=7    height=6    xoffset=1    yoffset=1    xadvance=9    page=0    chnl=0
char id=62   x=98   y=329  width=4    height=7    xoffset=3    yoffset=1    xadvance=9    page=0    chnl=0
char id=63   x=394  y=133  width=8    height=11   xoffset=0    yoffset=-1   xadvance=9    page=0    chnl=0
char id=64   x=425  y=133  width=8    height=11   xoffset=1    yoffset=-1   xadvance=10   page=0    chnl=0
char id=65   x=118  y=437  width=8    height=11   xoffset=1    yoffset=-1   xadvance=10   page=0    chnl=0
char id=66   x=118  y=450  width=8    height=11   xoffset=1    yoffset=-1   xadvance=10   page=0    chnl=0
char id=67   x=118  y=463  width=8    height=11   xoffset=1    yoffset=-1   xadvance=10   page=0    chnl=0
char id=68   x=118  y=476  width=8    height=11   xoffset=1    yoffset=-1   xadvance=10   page=0    chnl=0
char id=69   x=118  y=489  width=8    height=11   xoffset=1    yoffset=-1   xadvance=10   page=0    chnl=0
char id=70   x=133  y=133  width=8    height=11   xoffset=1    yoffset=-1   xadvance=10   page=0    chnl=0
char id=71   x=133  y=146  width=8    height=11   xoffset=1    yoffset=-1   xadvance=10   page=0    chnl=0
char id=72   x=133  y=159  width=8    height=11   xoffset=1    yoffset=-1   xadvance=10   page=0    chnl=0
char id=73   x=133  y=172  width=6    height=11   xoffset=1    yoffset=-1   xadvance=9    page=0    chnl=0
char id=74   x=133  y=185  width=8    height=11   xoffset=1    yoffset=-1   xadvance=10   page=0    chnl=0
char id=75   x=133  y=198  width=8    height=11   xoffset=1    yoffset=-1   xadvance=10   page=0    chnl=0
char id=76   x=133  y=211  width=8    height=11   xoffset=1    yoffset=-1   xadvance=10   page=0    chnl=0
char id=77   x=143  y=133  width=9    height=11   xoffset=1    yoffset=-1   xadvance=10   page=0    chnl=0
char id=78   x=133  y=224  width=8    height=11   xoffset=1    yoffset=-1   xadvance=10   page=0    chnl=0
char id=79   x=133  y=237  width=8    height=11   xoffset=1    yoffset=-1   xadvance=10   page=0    chnl=0
char id=80   x=133  y=250  width=8    height=11   xoffset=1    yoffset=-1   xadvance=10   page=0    chnl=0
char id=81   x=143  y=146  width=9    height=12   xoffset=1    yoffset=-1   xadvance=10   page=0    chnl=0
char id=82   x=133  y=263  width=8    height=11   xoffset=1    yoffset=-1   xadvance=10   page=0    chnl=0
char id=83   x=133  y=276  width=8    height=11   xoffset=1    yoffset=-1   xadvance=10   page=0    chnl=0
char id=84   x=133  y=289  width=7    height=11   xoffset=1    yoffset=-1   xadvance=9    page=0    chnl=0
char id=85   x=133  y=302  width=8    height=11   xoffset=1    yoffset=-1   xadvance=10   page=0    chnl=0
char id=86   x=133  y=315  width=8    height=11   xoffset=1    yoffset=-1   xadvance=10   page=0    chnl=0
char id=87   x=133  y=328  width=8    height=11   xoffset=1    yoffset=-1   xadvance=9    page=0    chnl=0
char id=88   x=133  y=341  width=8    height=11   xoffset=1    yoffset=-1   xadvance=9    page=0    chnl=0
char id=89   x=133  y=354  width=8    height=11   xoffset=1    yoffset=-1   xadvance=10   page=0    chnl=0
char id=90   x=133  y=367  width=8    height=11   xoffset=1    yoffset=-1   xadvance=10   page=0    chnl=0
char id=91   x=98   y=243  width=4    height=12   xoffset=1    yoffset=-1   xadvance=10   page=0    chnl=0
char id=92   x=118  y=502  width=8    height=8    xoffset=1    yoffset=1    xadvance=10   page=0    chnl=0
char id=93   x=98   y=315  width=4    height=12   xoffset=4    yoffset=-1   xadvance=9    page=0    chnl=0
char id=94   x=400  y=106  width=8    height=4    xoffset=0    yoffset=-1   xadvance=9    page=0    chnl=0
char id=95   x=32   y=509  width=9    height=2    xoffset=0    yoffset=8    xadvance=9    page=0    chnl=0
char id=96   x=284  y=57   width=3    height=3    xoffset=3    yoffset=-1   xadvance=9    page=0    chnl=0
char id=97   x=133  y=380  width=8    height=11   xoffset=1    yoffset=-1   xadvance=10   page=0    chnl=0
char id=98   x=133  y=393  width=8    height=11   xoffset=1    yoffset=-1   xadvance=10   page=0    chnl=0
char id=99   x=133  y=406  width=8    height=11   xoffset=1    yoffset=-1   xadvance=10   page=0    chnl=0
char id=100  x=133  y=419  width=8    height=11   xoffset=1    yoffset=-1   xadvance=10   page=0    chnl=0
char id=101  x=133  y=432  width=8    height=11   xoffset=1    yoffset=-1   xadvance=10   page=0    chnl=0
char id=102  x=133  y=445  width=8    height=11   xoffset=1    yoffset=-1   xadvance=10   page=0    chnl=0
char id=103  x=133  y=458  width=8    height=11   xoffset=1    yoffset=-1   xadvance=10   page=0    chnl=0
char id=104  x=133  y=471  width=8    height=11   xoffset=1    yoffset=-1   xadvance=10   page=0    chnl=0
char id=105  x=133  y=484  width=6    height=11   xoffset=1    yoffset=-1   xadvance=9    page=0    chnl=0
char id=106  x=133  y=497  width=8    height=11   xoffset=1    yoffset=-1   xadvance=10   page=0    chnl=0
char id=107  x=154  y=133  width=8    height=11   xoffset=1    yoffset=-1   xadvance=10   page=0    chnl=0
char id=108  x=164  y=133  width=8    height=11   xoffset=1    yoffset=-1   xadvance=10   page=0    chnl=0
char id=109  x=174  y=133  width=9    height=11   xoffset=1    yoffset=-1   xadvance=10   page=0    chnl=0
char id=110  x=185  y=133  width=8    height=11   xoffset=1    yoffset=-1   xadvance=10   page=0    chnl=0
char id=111  x=195  y=133  width=8    height=11   xoffset=1    yoffset=-1   xadvance=10   page=0    chnl=0
char id=112  x=205  y=133  width=8    height=11   xoffset=1    yoffset=-1   xadvance=10   page=0    chnl=0
char id=113  x=143  y=160  width=9    height=12   xoffset=1    yoffset=-1   xadvance=10   page=0    chnl=0
char id=114  x=215  y=133  width=8    height=11   xoffset=1    yoffset=-1   xadvance=10   page=0    chnl=0
char id=115  x=225  y=133  width=8    height=11   xoffset=1    yoffset=-1   xadvance=10   page=0    chnl=0
char id=116  x=235  y=133  width=7    height=11   xoffset=1    yoffset=-1   xadvance=9    page=0    chnl=0
char id=117  x=244  y=133  width=8    height=11   xoffset=1    yoffset=-1   xadvance=10   page=0    chnl=0
char id=118  x=254  y=133  width=8    height=11   xoffset=1    yoffset=-1   xadvance=10   page=0    chnl=0
char id=119  x=264  y=133  width=8    height=11   xoffset=1    yoffset=-1   xadvance=9    page=0    chnl=0
char id=120  x=274  y=133  width=8    height=11   xoffset=1    yoffset=-1   xadvance=9    page=0    chnl=0
char id=121  x=284  y=133  width=8    height=11   xoffset=1    yoffset=-1   xadvance=10   page=0    chnl=0
char id=122  x=294  y=133  width=8    height=11   xoffset=1    yoffset=-1   xadvance=10   page=0    chnl=0
char id=123  x=411  y=133  width=5    height=11   xoffset=0    yoffset=-1   xadvance=9    page=0    chnl=0
char id=124  x=99   y=145  width=2    height=11   xoffset=3    yoffset=-1   xadvance=9    page=0    chnl=0
char id=125  x=418  y=133  width=5    height=11   xoffset=4    yoffset=-1   xadvance=9    page=0    chnl=0
char id=126  x=498  y=133  width=9    height=5    xoffset=1    yoffset=-1   xadvance=10   page=0    chnl=0
kernings count=0
