EUL13_low_attack_slowed.png
format: RGBA8888
filter: Linear,Linear
repeat: none
attack_
  rotate: false
  xy: 2, 2
  size: 129, 122
  orig: 129, 122
  offset: 0, 0
  index: 0
attack_
  rotate: false
  xy: 133, 2
  size: 129, 122
  orig: 129, 122
  offset: 0, 0
  index: 1
attack_
  rotate: false
  xy: 264, 2
  size: 129, 122
  orig: 129, 122
  offset: 0, 0
  index: 2
attack_
  rotate: false
  xy: 395, 2
  size: 129, 122
  orig: 129, 122
  offset: 0, 0
  index: 3
attack_
  rotate: false
  xy: 526, 2
  size: 129, 122
  orig: 129, 122
  offset: 0, 0
  index: 4
attack_
  rotate: false
  xy: 657, 2
  size: 129, 122
  orig: 129, 122
  offset: 0, 0
  index: 5
attack_
  rotate: false
  xy: 788, 2
  size: 129, 122
  orig: 129, 122
  offset: 0, 0
  index: 6
attack_
  rotate: false
  xy: 919, 2
  size: 129, 122
  orig: 129, 122
  offset: 0, 0
  index: 7
attack_
  rotate: false
  xy: 2, 126
  size: 129, 122
  orig: 129, 122
  offset: 0, 0
  index: 8
attack_
  rotate: false
  xy: 133, 126
  size: 129, 122
  orig: 129, 122
  offset: 0, 0
  index: 9
attack_
  rotate: false
  xy: 264, 126
  size: 129, 122
  orig: 129, 122
  offset: 0, 0
  index: 10
attack_
  rotate: false
  xy: 395, 126
  size: 129, 122
  orig: 129, 122
  offset: 0, 0
  index: 11
attack_
  rotate: false
  xy: 526, 126
  size: 129, 122
  orig: 129, 122
  offset: 0, 0
  index: 12
attack_
  rotate: false
  xy: 657, 126
  size: 129, 122
  orig: 129, 122
  offset: 0, 0
  index: 13
attack_
  rotate: false
  xy: 788, 126
  size: 129, 122
  orig: 129, 122
  offset: 0, 0
  index: 14
attack_
  rotate: false
  xy: 919, 126
  size: 129, 122
  orig: 129, 122
  offset: 0, 0
  index: 15
