EUL2_range_walk_slowed.png
format: RGBA8888
filter: Linear,Linear
repeat: none
walk_
  rotate: false
  xy: 2, 2
  size: 163, 102
  orig: 163, 102
  offset: 0, 0
  index: 0
walk_
  rotate: false
  xy: 167, 2
  size: 163, 102
  orig: 163, 102
  offset: 0, 0
  index: 1
walk_
  rotate: false
  xy: 332, 2
  size: 163, 102
  orig: 163, 102
  offset: 0, 0
  index: 2
walk_
  rotate: false
  xy: 497, 2
  size: 163, 102
  orig: 163, 102
  offset: 0, 0
  index: 3
walk_
  rotate: false
  xy: 662, 2
  size: 163, 102
  orig: 163, 102
  offset: 0, 0
  index: 4
walk_
  rotate: false
  xy: 827, 2
  size: 163, 102
  orig: 163, 102
  offset: 0, 0
  index: 5
walk_
  rotate: false
  xy: 992, 2
  size: 163, 102
  orig: 163, 102
  offset: 0, 0
  index: 6
walk_
  rotate: false
  xy: 1157, 2
  size: 163, 102
  orig: 163, 102
  offset: 0, 0
  index: 7
walk_
  rotate: false
  xy: 2, 106
  size: 163, 102
  orig: 163, 102
  offset: 0, 0
  index: 8
walk_
  rotate: false
  xy: 167, 106
  size: 163, 102
  orig: 163, 102
  offset: 0, 0
  index: 9
walk_
  rotate: false
  xy: 332, 106
  size: 163, 102
  orig: 163, 102
  offset: 0, 0
  index: 10
walk_
  rotate: false
  xy: 497, 106
  size: 163, 102
  orig: 163, 102
  offset: 0, 0
  index: 11
walk_
  rotate: false
  xy: 662, 106
  size: 163, 102
  orig: 163, 102
  offset: 0, 0
  index: 12
walk_
  rotate: false
  xy: 827, 106
  size: 163, 102
  orig: 163, 102
  offset: 0, 0
  index: 13
walk_
  rotate: false
  xy: 992, 106
  size: 163, 102
  orig: 163, 102
  offset: 0, 0
  index: 14
walk_
  rotate: false
  xy: 1157, 106
  size: 163, 102
  orig: 163, 102
  offset: 0, 0
  index: 15
