EUL2_tank_attack.png
format: RGBA8888
filter: Linear,Linear
repeat: none
attack_
  rotate: false
  xy: 2, 2
  size: 201, 196
  orig: 201, 196
  offset: 0, 0
  index: 0
attack_
  rotate: false
  xy: 205, 2
  size: 201, 196
  orig: 201, 196
  offset: 0, 0
  index: 1
attack_
  rotate: false
  xy: 408, 2
  size: 201, 196
  orig: 201, 196
  offset: 0, 0
  index: 2
attack_
  rotate: false
  xy: 611, 2
  size: 201, 196
  orig: 201, 196
  offset: 0, 0
  index: 3
attack_
  rotate: false
  xy: 814, 2
  size: 201, 196
  orig: 201, 196
  offset: 0, 0
  index: 4
attack_
  rotate: false
  xy: 1017, 2
  size: 201, 196
  orig: 201, 196
  offset: 0, 0
  index: 5
attack_
  rotate: false
  xy: 1220, 2
  size: 201, 196
  orig: 201, 196
  offset: 0, 0
  index: 6
attack_
  rotate: false
  xy: 1423, 2
  size: 201, 196
  orig: 201, 196
  offset: 0, 0
  index: 7
attack_
  rotate: false
  xy: 2, 200
  size: 201, 196
  orig: 201, 196
  offset: 0, 0
  index: 8
attack_
  rotate: false
  xy: 205, 200
  size: 201, 196
  orig: 201, 196
  offset: 0, 0
  index: 9
attack_
  rotate: false
  xy: 408, 200
  size: 201, 196
  orig: 201, 196
  offset: 0, 0
  index: 10
attack_
  rotate: false
  xy: 611, 200
  size: 201, 196
  orig: 201, 196
  offset: 0, 0
  index: 11
attack_
  rotate: false
  xy: 814, 200
  size: 201, 196
  orig: 201, 196
  offset: 0, 0
  index: 12
attack_
  rotate: false
  xy: 1017, 200
  size: 201, 196
  orig: 201, 196
  offset: 0, 0
  index: 13
attack_
  rotate: false
  xy: 1220, 200
  size: 201, 196
  orig: 201, 196
  offset: 0, 0
  index: 14
attack_
  rotate: false
  xy: 1423, 200
  size: 201, 196
  orig: 201, 196
  offset: 0, 0
  index: 15
