UL2_normal_attack.png
format: RGBA8888
filter: Linear,Linear
repeat: none
attack_
  rotate: false
  xy: 2, 2
  size: 149, 138
  orig: 149, 138
  offset: 0, 0
  index: 0
attack_
  rotate: false
  xy: 153, 2
  size: 149, 138
  orig: 149, 138
  offset: 0, 0
  index: 1
attack_
  rotate: false
  xy: 304, 2
  size: 149, 138
  orig: 149, 138
  offset: 0, 0
  index: 2
attack_
  rotate: false
  xy: 455, 2
  size: 149, 138
  orig: 149, 138
  offset: 0, 0
  index: 3
attack_
  rotate: false
  xy: 606, 2
  size: 149, 138
  orig: 149, 138
  offset: 0, 0
  index: 4
attack_
  rotate: false
  xy: 757, 2
  size: 149, 138
  orig: 149, 138
  offset: 0, 0
  index: 5
attack_
  rotate: false
  xy: 2, 142
  size: 149, 138
  orig: 149, 138
  offset: 0, 0
  index: 6
attack_
  rotate: false
  xy: 153, 142
  size: 149, 138
  orig: 149, 138
  offset: 0, 0
  index: 7
attack_
  rotate: false
  xy: 304, 142
  size: 149, 138
  orig: 149, 138
  offset: 0, 0
  index: 8
attack_
  rotate: false
  xy: 455, 142
  size: 149, 138
  orig: 149, 138
  offset: 0, 0
  index: 9
attack_
  rotate: false
  xy: 606, 142
  size: 149, 138
  orig: 149, 138
  offset: 0, 0
  index: 10
attack_
  rotate: false
  xy: 757, 142
  size: 149, 138
  orig: 149, 138
  offset: 0, 0
  index: 11
attack_
  rotate: false
  xy: 2, 282
  size: 149, 138
  orig: 149, 138
  offset: 0, 0
  index: 12
attack_
  rotate: false
  xy: 153, 282
  size: 149, 138
  orig: 149, 138
  offset: 0, 0
  index: 13
attack_
  rotate: false
  xy: 304, 282
  size: 149, 138
  orig: 149, 138
  offset: 0, 0
  index: 14
attack_
  rotate: false
  xy: 455, 282
  size: 149, 138
  orig: 149, 138
  offset: 0, 0
  index: 15
