EUL13_normaldrop_drop_slowed.png
format: RGBA8888
filter: Linear,Linear
repeat: none
drop_
  rotate: false
  xy: 2, 2
  size: 177, 104
  orig: 177, 104
  offset: 0, 0
  index: 0
drop_
  rotate: false
  xy: 181, 2
  size: 177, 104
  orig: 177, 104
  offset: 0, 0
  index: 1
drop_
  rotate: false
  xy: 360, 2
  size: 177, 104
  orig: 177, 104
  offset: 0, 0
  index: 2
drop_
  rotate: false
  xy: 539, 2
  size: 177, 104
  orig: 177, 104
  offset: 0, 0
  index: 3
drop_
  rotate: false
  xy: 718, 2
  size: 177, 104
  orig: 177, 104
  offset: 0, 0
  index: 4
drop_
  rotate: false
  xy: 897, 2
  size: 177, 104
  orig: 177, 104
  offset: 0, 0
  index: 5
drop_
  rotate: false
  xy: 1076, 2
  size: 177, 104
  orig: 177, 104
  offset: 0, 0
  index: 6
drop_
  rotate: false
  xy: 1255, 2
  size: 177, 104
  orig: 177, 104
  offset: 0, 0
  index: 7
drop_
  rotate: false
  xy: 1434, 2
  size: 177, 104
  orig: 177, 104
  offset: 0, 0
  index: 8
drop_
  rotate: false
  xy: 1255, 2
  size: 177, 104
  orig: 177, 104
  offset: 0, 0
  index: 9
drop_
  rotate: false
  xy: 1076, 2
  size: 177, 104
  orig: 177, 104
  offset: 0, 0
  index: 10
drop_
  rotate: false
  xy: 897, 2
  size: 177, 104
  orig: 177, 104
  offset: 0, 0
  index: 11
drop_
  rotate: false
  xy: 718, 2
  size: 177, 104
  orig: 177, 104
  offset: 0, 0
  index: 12
drop_
  rotate: false
  xy: 539, 2
  size: 177, 104
  orig: 177, 104
  offset: 0, 0
  index: 13
drop_
  rotate: false
  xy: 360, 2
  size: 177, 104
  orig: 177, 104
  offset: 0, 0
  index: 14
drop_
  rotate: false
  xy: 181, 2
  size: 177, 104
  orig: 177, 104
  offset: 0, 0
  index: 15
