EUL13_normaldrop_attack_slowed.png
format: RGBA8888
filter: Linear,Linear
repeat: none
attack_
  rotate: false
  xy: 2, 2
  size: 241, 113
  orig: 241, 113
  offset: 0, 0
  index: 0
attack_
  rotate: false
  xy: 245, 2
  size: 241, 113
  orig: 241, 113
  offset: 0, 0
  index: 1
attack_
  rotate: false
  xy: 488, 2
  size: 241, 113
  orig: 241, 113
  offset: 0, 0
  index: 2
attack_
  rotate: false
  xy: 731, 2
  size: 241, 113
  orig: 241, 113
  offset: 0, 0
  index: 3
attack_
  rotate: false
  xy: 974, 2
  size: 241, 113
  orig: 241, 113
  offset: 0, 0
  index: 4
attack_
  rotate: false
  xy: 1217, 2
  size: 241, 113
  orig: 241, 113
  offset: 0, 0
  index: 5
attack_
  rotate: false
  xy: 1460, 2
  size: 241, 113
  orig: 241, 113
  offset: 0, 0
  index: 6
attack_
  rotate: false
  xy: 1703, 2
  size: 241, 113
  orig: 241, 113
  offset: 0, 0
  index: 7
attack_
  rotate: false
  xy: 2, 117
  size: 241, 113
  orig: 241, 113
  offset: 0, 0
  index: 8
attack_
  rotate: false
  xy: 245, 117
  size: 241, 113
  orig: 241, 113
  offset: 0, 0
  index: 9
attack_
  rotate: false
  xy: 488, 117
  size: 241, 113
  orig: 241, 113
  offset: 0, 0
  index: 10
attack_
  rotate: false
  xy: 731, 117
  size: 241, 113
  orig: 241, 113
  offset: 0, 0
  index: 11
attack_
  rotate: false
  xy: 974, 117
  size: 241, 113
  orig: 241, 113
  offset: 0, 0
  index: 12
attack_
  rotate: false
  xy: 1217, 117
  size: 241, 113
  orig: 241, 113
  offset: 0, 0
  index: 13
attack_
  rotate: false
  xy: 1460, 117
  size: 241, 113
  orig: 241, 113
  offset: 0, 0
  index: 14
attack_
  rotate: false
  xy: 1703, 117
  size: 241, 113
  orig: 241, 113
  offset: 0, 0
  index: 15
