EUL13_normaldrop_walk.png
format: RGBA8888
filter: Linear,Linear
repeat: none
walk_
  rotate: false
  xy: 2, 2
  size: 177, 104
  orig: 177, 104
  offset: 0, 0
  index: 0
walk_
  rotate: false
  xy: 181, 2
  size: 177, 104
  orig: 177, 104
  offset: 0, 0
  index: 1
walk_
  rotate: false
  xy: 360, 2
  size: 177, 104
  orig: 177, 104
  offset: 0, 0
  index: 2
walk_
  rotate: false
  xy: 539, 2
  size: 177, 104
  orig: 177, 104
  offset: 0, 0
  index: 3
walk_
  rotate: false
  xy: 718, 2
  size: 177, 104
  orig: 177, 104
  offset: 0, 0
  index: 4
walk_
  rotate: false
  xy: 897, 2
  size: 177, 104
  orig: 177, 104
  offset: 0, 0
  index: 5
walk_
  rotate: false
  xy: 1076, 2
  size: 177, 104
  orig: 177, 104
  offset: 0, 0
  index: 6
walk_
  rotate: false
  xy: 1255, 2
  size: 177, 104
  orig: 177, 104
  offset: 0, 0
  index: 7
walk_
  rotate: false
  xy: 1434, 2
  size: 177, 104
  orig: 177, 104
  offset: 0, 0
  index: 8
walk_
  rotate: false
  xy: 1255, 2
  size: 177, 104
  orig: 177, 104
  offset: 0, 0
  index: 9
walk_
  rotate: false
  xy: 1076, 2
  size: 177, 104
  orig: 177, 104
  offset: 0, 0
  index: 10
walk_
  rotate: false
  xy: 897, 2
  size: 177, 104
  orig: 177, 104
  offset: 0, 0
  index: 11
walk_
  rotate: false
  xy: 718, 2
  size: 177, 104
  orig: 177, 104
  offset: 0, 0
  index: 12
walk_
  rotate: false
  xy: 539, 2
  size: 177, 104
  orig: 177, 104
  offset: 0, 0
  index: 13
walk_
  rotate: false
  xy: 360, 2
  size: 177, 104
  orig: 177, 104
  offset: 0, 0
  index: 14
walk_
  rotate: false
  xy: 181, 2
  size: 177, 104
  orig: 177, 104
  offset: 0, 0
  index: 15
