UL3_tower1_attack.png
format: RGBA8888
filter: Linear,Linear
repeat: none
attack_
  rotate: false
  xy: 2, 2
  size: 240, 171
  orig: 240, 171
  offset: 0, 0
  index: 0
attack_
  rotate: false
  xy: 244, 2
  size: 240, 171
  orig: 240, 171
  offset: 0, 0
  index: 1
attack_
  rotate: false
  xy: 486, 2
  size: 240, 171
  orig: 240, 171
  offset: 0, 0
  index: 2
attack_
  rotate: false
  xy: 728, 2
  size: 240, 171
  orig: 240, 171
  offset: 0, 0
  index: 3
attack_
  rotate: false
  xy: 970, 2
  size: 240, 171
  orig: 240, 171
  offset: 0, 0
  index: 4
attack_
  rotate: false
  xy: 1212, 2
  size: 240, 171
  orig: 240, 171
  offset: 0, 0
  index: 5
attack_
  rotate: false
  xy: 1454, 2
  size: 240, 171
  orig: 240, 171
  offset: 0, 0
  index: 6
attack_
  rotate: false
  xy: 1696, 2
  size: 240, 171
  orig: 240, 171
  offset: 0, 0
  index: 7
attack_
  rotate: false
  xy: 2, 175
  size: 240, 171
  orig: 240, 171
  offset: 0, 0
  index: 8
attack_
  rotate: false
  xy: 244, 175
  size: 240, 171
  orig: 240, 171
  offset: 0, 0
  index: 9
attack_
  rotate: false
  xy: 486, 175
  size: 240, 171
  orig: 240, 171
  offset: 0, 0
  index: 10
attack_
  rotate: false
  xy: 728, 175
  size: 240, 171
  orig: 240, 171
  offset: 0, 0
  index: 11
attack_
  rotate: false
  xy: 970, 175
  size: 240, 171
  orig: 240, 171
  offset: 0, 0
  index: 12
attack_
  rotate: false
  xy: 1212, 175
  size: 240, 171
  orig: 240, 171
  offset: 0, 0
  index: 13
attack_
  rotate: false
  xy: 1454, 175
  size: 240, 171
  orig: 240, 171
  offset: 0, 0
  index: 14
attack_
  rotate: false
  xy: 1696, 175
  size: 240, 171
  orig: 240, 171
  offset: 0, 0
  index: 15
