EUL2_tankbomb_walk_DOTed.png
format: RGBA8888
filter: Linear,Linear
repeat: none
walk_
  rotate: false
  xy: 2, 2
  size: 108, 129
  orig: 108, 129
  offset: 0, 0
  index: 0
walk_
  rotate: false
  xy: 112, 2
  size: 108, 129
  orig: 108, 129
  offset: 0, 0
  index: 1
walk_
  rotate: false
  xy: 222, 2
  size: 108, 129
  orig: 108, 129
  offset: 0, 0
  index: 2
walk_
  rotate: false
  xy: 332, 2
  size: 108, 129
  orig: 108, 129
  offset: 0, 0
  index: 3
walk_
  rotate: false
  xy: 442, 2
  size: 108, 129
  orig: 108, 129
  offset: 0, 0
  index: 4
walk_
  rotate: false
  xy: 552, 2
  size: 108, 129
  orig: 108, 129
  offset: 0, 0
  index: 5
walk_
  rotate: false
  xy: 662, 2
  size: 108, 129
  orig: 108, 129
  offset: 0, 0
  index: 6
walk_
  rotate: false
  xy: 772, 2
  size: 108, 129
  orig: 108, 129
  offset: 0, 0
  index: 7
walk_
  rotate: false
  xy: 882, 2
  size: 108, 129
  orig: 108, 129
  offset: 0, 0
  index: 8
walk_
  rotate: false
  xy: 992, 2
  size: 108, 129
  orig: 108, 129
  offset: 0, 0
  index: 9
walk_
  rotate: false
  xy: 1102, 2
  size: 108, 129
  orig: 108, 129
  offset: 0, 0
  index: 10
walk_
  rotate: false
  xy: 1212, 2
  size: 108, 129
  orig: 108, 129
  offset: 0, 0
  index: 11
walk_
  rotate: false
  xy: 1322, 2
  size: 108, 129
  orig: 108, 129
  offset: 0, 0
  index: 12
walk_
  rotate: false
  xy: 1432, 2
  size: 108, 129
  orig: 108, 129
  offset: 0, 0
  index: 13
walk_
  rotate: false
  xy: 1542, 2
  size: 108, 129
  orig: 108, 129
  offset: 0, 0
  index: 14
walk_
  rotate: false
  xy: 1652, 2
  size: 108, 129
  orig: 108, 129
  offset: 0, 0
  index: 15
